<?xml version="1.0" encoding="utf-8"?>
<!-- Generator: Adobe Illustrator 22.0.1, SVG Export Plug-In . SVG Version: 6.00 Build 0)  -->
<svg version="1.1" xmlns="http://www.w3.org/2000/svg" xmlns:xlink="http://www.w3.org/1999/xlink" x="0px" y="0px"
	 viewBox="0 0 352 126" style="enable-background:new 0 0 352 126;" xml:space="preserve">
<style type="text/css">
	.st0{fill:#ECE8F6;}
	.st1{fill:#333333;stroke:#4D4D4D;stroke-width:4;stroke-linecap:round;stroke-linejoin:round;stroke-miterlimit:10;}
	.st2{fill:#C9916B;stroke:#4D4D4D;stroke-width:4;stroke-linecap:round;stroke-linejoin:round;stroke-miterlimit:10;}
	.st3{fill:#9F94C4;stroke:#4D4D4D;stroke-width:4.0073;stroke-linecap:round;stroke-linejoin:round;stroke-miterlimit:10;}
	.st4{fill:none;stroke:#4D4D4D;stroke-width:4.0073;stroke-linecap:round;stroke-linejoin:round;stroke-miterlimit:10;}
	.st5{fill:#635793;stroke:#4D4D4D;stroke-width:4;stroke-linecap:round;stroke-linejoin:round;stroke-miterlimit:10;}
	.st6{fill:#B3B3B3;}
	.st7{fill:#4D4D4D;}
	.st8{fill:#CF251A;}
	.st9{fill:#F7561E;}
	.st10{fill:#5A2FBE;}
	.st11{fill:#2A0062;}
	.st12{fill:#F88F1B;}
	.st13{fill:url(#SVGID_1_);}
	.st14{fill:url(#SVGID_2_);}
	.st15{fill:none;stroke:#4D4D4D;stroke-width:8;stroke-linecap:round;stroke-linejoin:round;stroke-miterlimit:10;}
	.st16{fill:#E6E6E6;}
	.st17{fill:#D72D20;stroke:#000000;stroke-width:4;stroke-linecap:round;stroke-linejoin:round;stroke-miterlimit:10;}
	.st18{fill:#F7561E;stroke:#000000;stroke-width:4;stroke-linecap:round;stroke-linejoin:round;stroke-miterlimit:10;}
	.st19{fill:#F8911E;stroke:#000000;stroke-width:4;stroke-linecap:round;stroke-linejoin:round;stroke-miterlimit:10;}
	.st20{fill:#FFFFFF;stroke:#000000;stroke-width:4;stroke-linecap:round;stroke-linejoin:round;stroke-miterlimit:10;}
	.st21{fill:none;stroke:#000000;stroke-width:4;stroke-linecap:round;stroke-linejoin:round;stroke-miterlimit:10;}
	.st22{stroke:#000000;stroke-linecap:round;stroke-linejoin:round;stroke-miterlimit:10;}
	.st23{opacity:0.15;}
	.st24{fill:none;stroke:#000000;stroke-width:2;stroke-linecap:round;stroke-linejoin:round;stroke-miterlimit:10;}
	.st25{fill:none;stroke:#E6E6E6;stroke-width:4;stroke-linecap:round;stroke-linejoin:round;stroke-miterlimit:10;}
	
		.st26{fill-rule:evenodd;clip-rule:evenodd;fill:none;stroke:#000000;stroke-width:2;stroke-linecap:round;stroke-linejoin:round;stroke-miterlimit:10;}
	.st27{opacity:0.15;fill:none;stroke:#000000;stroke-width:2;stroke-linecap:round;stroke-linejoin:round;stroke-miterlimit:10;}
	.st28{opacity:0.1;}
	.st29{fill:none;stroke:#4D4D4D;stroke-width:4;stroke-linecap:round;stroke-linejoin:round;stroke-miterlimit:10;}
	.st30{fill:#FBD2AA;stroke:#4D4D4D;stroke-width:4;stroke-linecap:round;stroke-linejoin:round;stroke-miterlimit:10;}
	.st31{fill:#ED6265;stroke:#4D4D4D;stroke-width:4.0073;stroke-linecap:round;stroke-linejoin:round;stroke-miterlimit:10;}
	.st32{fill:#AA3541;stroke:#4D4D4D;stroke-width:4;stroke-linecap:round;stroke-linejoin:round;stroke-miterlimit:10;}
	.st33{fill:#91D6E0;stroke:#4D4D4D;stroke-width:4;stroke-linecap:round;stroke-linejoin:round;stroke-miterlimit:10;}
	.st34{fill:#FFFFFF;stroke:#4D4D4D;stroke-width:4;stroke-linecap:round;stroke-linejoin:round;stroke-miterlimit:10;}
	.st35{fill:#B6A7DC;}
	.st36{fill:#FFFFFF;}
	.st37{fill:none;stroke:#4D4D4D;stroke-width:3.8644;stroke-linecap:round;stroke-linejoin:round;stroke-miterlimit:10;}
	.st38{fill:#9E6D4C;}
	.st39{fill:#9E6D4C;stroke:#4D4D4D;stroke-width:4.0073;stroke-linecap:round;stroke-linejoin:round;stroke-miterlimit:10;}
	.st40{fill:#F8911E;}
	.st41{fill:#2A2E37;}
	.st42{fill:#2A373E;}
	.st43{fill:#5737AC;}
	.st44{fill:#E9E9E9;}
	.st45{fill:url(#SVGID_3_);}
	.st46{fill:#433175;}
	.st47{fill:#D72D20;}
	.st48{fill:url(#SVGID_4_);}
	.st49{fill:url(#SVGID_5_);}
	.st50{fill:#FBB03B;stroke:#4D4D4D;stroke-width:4;stroke-linecap:round;stroke-linejoin:round;stroke-miterlimit:10;}
	.st51{fill:#AA866B;stroke:#4D4D4D;stroke-width:4;stroke-linecap:round;stroke-linejoin:round;stroke-miterlimit:10;}
	.st52{fill:#333333;}
	.st53{fill:#A3CC6C;stroke:#4D4D4D;stroke-width:4;stroke-linecap:round;stroke-linejoin:round;stroke-miterlimit:10;}
	.st54{fill-rule:evenodd;clip-rule:evenodd;fill:#FFFFFF;}
	.st55{fill-rule:evenodd;clip-rule:evenodd;fill:#131212;}
	.st56{fill:#1F6BFF;}
	.st57{fill:url(#SVGID_6_);}
	.st58{fill:url(#SVGID_7_);}
	.st59{fill:#C52327;}
	.st60{fill:#E7252D;}
	.st61{fill:#1A1718;}
	.st62{fill:#EBCCA8;}
	.st63{fill:#273F4E;}
	.st64{fill:#5A585A;}
	.st65{fill:#D3CFCE;}
	.st66{fill:#F3DDC1;}
	.st67{fill:#3A5E78;}
	.st68{fill:none;stroke:#C52327;stroke-width:0.1758;}
	.st69{fill:#6F9FB6;}
	.st70{fill:#161313;}
	.st71{fill:#344150;}
	.st72{fill:#ED7708;}
	.st73{fill:#FBB03B;}
	.st74{fill:none;stroke:#FBB03B;stroke-width:4;stroke-linecap:round;stroke-linejoin:round;stroke-miterlimit:10;}
	.st75{fill:none;stroke:#FFFFFF;stroke-width:4;stroke-linecap:round;stroke-linejoin:round;stroke-miterlimit:10;}
	.st76{fill:#FFFFFF;stroke:#CCCCCC;stroke-width:2;stroke-miterlimit:10;}
	.st77{fill:#030303;}
	.st78{fill:none;stroke:#23A960;stroke-width:8;stroke-linecap:round;stroke-linejoin:round;stroke-miterlimit:10;}
	.st79{fill:none;stroke:#F8911E;stroke-width:8;stroke-linecap:round;stroke-miterlimit:10;}
	.st80{fill:none;stroke:#D72D20;stroke-width:8;stroke-linecap:round;stroke-linejoin:round;stroke-miterlimit:10;}
	.st81{fill:none;stroke:#5737AC;stroke-width:8;stroke-linecap:round;stroke-miterlimit:10;}
	.st82{fill:none;stroke:#4D4D4D;stroke-width:3.266;stroke-linecap:round;stroke-linejoin:round;stroke-miterlimit:10;}
	.st83{fill:none;stroke:#4D4D4D;stroke-width:3.0148;stroke-linecap:round;stroke-linejoin:round;stroke-miterlimit:10;}
	.st84{fill:#3772A9;}
	.st85{fill:#4C4C4C;}
	.st86{fill:#7C7C7C;}
	.st87{clip-path:url(#SVGID_9_);}
	.st88{fill:#FBD2AA;stroke:#4D4D4D;stroke-width:0.6087;stroke-linecap:round;stroke-linejoin:round;stroke-miterlimit:10;}
	.st89{fill:#9F94C4;stroke:#4D4D4D;stroke-width:0.6098;stroke-linecap:round;stroke-linejoin:round;stroke-miterlimit:10;}
	.st90{fill:#635793;stroke:#4D4D4D;stroke-width:0.6087;stroke-linecap:round;stroke-linejoin:round;stroke-miterlimit:10;}
	.st91{fill:none;stroke:#4D4D4D;stroke-width:0.6087;stroke-linecap:round;stroke-linejoin:round;stroke-miterlimit:10;}
	.st92{fill:none;stroke:#4D4D4D;stroke-width:0.6098;stroke-linecap:round;stroke-linejoin:round;stroke-miterlimit:10;}
	.st93{fill:#9E6D4C;stroke:#4D4D4D;stroke-width:0.6098;stroke-linecap:round;stroke-linejoin:round;stroke-miterlimit:10;}
	.st94{fill:none;stroke:#2BA251;stroke-width:4;stroke-linecap:round;stroke-linejoin:round;stroke-miterlimit:10;}
	.st95{font-family:'SourceSansPro-SemiBold';}
	.st96{font-size:18px;}
	.st97{clip-path:url(#SVGID_11_);}
	.st98{fill:#333333;stroke:#4D4D4D;stroke-linecap:round;stroke-linejoin:round;stroke-miterlimit:10;}
	.st99{fill:#C9916B;stroke:#4D4D4D;stroke-linecap:round;stroke-linejoin:round;stroke-miterlimit:10;}
	.st100{fill:#9F94C4;stroke:#4D4D4D;stroke-linecap:round;stroke-linejoin:round;stroke-miterlimit:10;}
	.st101{fill:#635793;stroke:#4D4D4D;stroke-linecap:round;stroke-linejoin:round;stroke-miterlimit:10;}
	.st102{fill:none;stroke:#4D4D4D;stroke-linecap:round;stroke-linejoin:round;stroke-miterlimit:10;}
	.st103{fill:#CCCCCC;}
	.st104{fill:none;stroke:#2BA251;stroke-width:2;stroke-linecap:round;stroke-linejoin:round;stroke-miterlimit:10;}
	.st105{fill:none;stroke:#9F94C4;stroke-width:24;stroke-linecap:round;stroke-linejoin:round;stroke-miterlimit:10;}
	.st106{fill:none;stroke:#FBD2AA;stroke-width:22;stroke-linecap:round;stroke-linejoin:round;stroke-miterlimit:10;}
	.st107{fill:none;stroke:#635793;stroke-width:4;stroke-linecap:round;stroke-linejoin:round;stroke-miterlimit:10;}
	.st108{fill:#333333;stroke:#4D4D4D;stroke-width:4.359;stroke-linecap:round;stroke-linejoin:round;stroke-miterlimit:10;}
</style>
<g id="Layer_2">
</g>
<g id="Layer_1">
	<path class="st76" d="M345,125H47c-3.3,0-6-2.7-6-6V47c0-3.3,2.7-6,6-6h298c3.3,0,6,2.7,6,6v72C351,122.3,348.3,125,345,125z"/>
	<g>
		<g>
			<path class="st7" d="M70.6,26.1c0-3.5,2.3-5.5,4.9-5.5c1.3,0,2.4,0.6,3.1,1.4l-1.2,1.5c-0.5-0.5-1.1-0.8-1.8-0.8
				c-1.4,0-2.6,1.3-2.6,3.4c0,2.1,1,3.4,2.5,3.4c0.9,0,1.5-0.4,2-1l1.2,1.5c-0.9,1-2,1.5-3.4,1.5C72.8,31.5,70.6,29.6,70.6,26.1z"/>
			<path class="st7" d="M80.7,26c0-3.4,1.9-5.4,4.7-5.4s4.7,2,4.7,5.4c0,3.4-1.9,5.5-4.7,5.5S80.7,29.4,80.7,26z M87.8,26
				c0-2.1-0.9-3.3-2.3-3.3c-1.4,0-2.3,1.2-2.3,3.3s0.9,3.4,2.3,3.4C86.9,29.4,87.8,28.1,87.8,26z"/>
			<path class="st7" d="M93,20.8h2.6l1.7,4.6c0.2,0.6,0.4,1.3,0.6,1.9h0.1c0.2-0.6,0.4-1.3,0.6-1.9l1.6-4.6h2.6v10.4h-2.1v-3.8
				c0-1,0.2-2.5,0.3-3.5h-0.1l-0.9,2.5l-1.5,4h-1.3l-1.5-4l-0.8-2.5h-0.1c0.1,1,0.3,2.5,0.3,3.5v3.8H93V20.8z"/>
			<path class="st7" d="M106,20.8h2.6l1.7,4.6c0.2,0.6,0.4,1.3,0.6,1.9h0.1c0.2-0.6,0.4-1.3,0.6-1.9l1.6-4.6h2.6v10.4h-2.1v-3.8
				c0-1,0.2-2.5,0.3-3.5h-0.1l-0.9,2.5l-1.5,4h-1.3l-1.5-4l-0.8-2.5h-0.1c0.1,1,0.3,2.5,0.3,3.5v3.8H106V20.8z"/>
			<path class="st7" d="M119,20.8h2.4v10.4H119V20.8z"/>
			<path class="st7" d="M126.6,22.8h-2.9v-2h8.1v2H129v8.5h-2.4V22.8z"/>
			<path class="st7" d="M138.3,20.8h2.4v10.4h-2.4V20.8z"/>
			<path class="st7" d="M146,22.8h-2.9v-2h8.1v2h-2.9v8.5H146V22.8z"/>
		</g>
	</g>
	<circle class="st76" cx="31" cy="31" r="30"/>
	<g>
		<g id="g48_3_" transform="translate(155.197863, 1.160267)" sketch:type="MSLayerGroup">
			<path id="path50_3_" sketch:type="MSShapeGroup" class="st47" d="M-124.2,43.6L-124.2,43.6l5.5-17h-11L-124.2,43.6L-124.2,43.6z"
				/>
		</g>
		<g id="g56_3_" transform="translate(28.531199, 1.160800)" sketch:type="MSLayerGroup">
			<path id="path58_3_" sketch:type="MSShapeGroup" class="st9" d="M2.5,43.6l-5.5-17h-7.7L2.5,43.6L2.5,43.6z"/>
		</g>
		<g id="g64_3_" transform="translate(0.088533, 0.255867)" sketch:type="MSLayerGroup">
			<path id="path66_3_" sketch:type="MSShapeGroup" class="st40" d="M17.6,27.6L17.6,27.6L16,32.7c-0.2,0.5,0,1,0.4,1.3l14.5,10.6
				L17.6,27.6L17.6,27.6z"/>
		</g>
		<g id="g72_3_" transform="translate(29.421866, 280.255593)" sketch:type="MSLayerGroup">
			<path id="path74_3_" sketch:type="MSShapeGroup" class="st47" d="M-11.7-252.4h7.7l-3.3-10.2c-0.2-0.5-0.9-0.5-1.1,0L-11.7-252.4
				L-11.7-252.4z"/>
		</g>
		<g id="g76_3_" transform="translate(247.197860, 1.160800)" sketch:type="MSLayerGroup">
			<path id="path78_3_" sketch:type="MSShapeGroup" class="st9" d="M-216.2,43.6l5.5-17h7.7L-216.2,43.6L-216.2,43.6z"/>
		</g>
		<g id="g80_3_" transform="translate(246.307061, 0.255867)" sketch:type="MSLayerGroup">
			<path id="path82_3_" sketch:type="MSShapeGroup" class="st40" d="M-202,27.6L-202,27.6l1.7,5.2c0.2,0.5,0,1-0.4,1.3l-14.5,10.5
				L-202,27.6L-202,27.6z"/>
		</g>
		<g id="g84_3_" transform="translate(336.973725, 280.255593)" sketch:type="MSLayerGroup">
			<path id="path86_3_" sketch:type="MSShapeGroup" class="st47" d="M-292.7-252.4h-7.7l3.3-10.2c0.2-0.5,0.9-0.5,1.1,0
				L-292.7-252.4L-292.7-252.4z"/>
		</g>
	</g>
	<text transform="matrix(1 0 0 1 141.2512 71.2081)" class="st85 st95 st96">Update app codebase</text>
	<g>
		<g>
			<path class="st85" d="M168.7,99.7h2.8V93h-2.3v-1.2c1.3-0.2,2-0.4,2.8-0.8h1.4v8.7h2.5v1.5h-7.2V99.7z"/>
			<path class="st85" d="M177.8,102.6c0-0.6,0.4-1.2,1.3-1.7v-0.1c-0.4-0.2-0.8-0.7-0.8-1.3c0-0.5,0.4-1.1,0.9-1.5V98
				c-0.6-0.4-1-1.1-1-2c0-1.8,1.5-2.8,3.2-2.8c0.5,0,0.9,0.1,1.2,0.2h3.2v1.4h-1.8c0.3,0.3,0.5,0.8,0.5,1.3c0,1.7-1.4,2.7-3.1,2.7
				c-0.4,0-0.8-0.1-1.2-0.2c-0.3,0.2-0.5,0.4-0.5,0.7c0,0.5,0.5,0.7,1.5,0.7h1.6c2,0,3.1,0.5,3.1,1.9c0,1.6-1.8,2.8-4.5,2.8
				C179.3,104.7,177.8,104,177.8,102.6z M184.2,102.2c0-0.6-0.5-0.8-1.6-0.8h-1.3c-0.5,0-0.9,0-1.2-0.1c-0.6,0.3-0.8,0.7-0.8,1
				c0,0.7,0.8,1.1,2.3,1.1C183.2,103.5,184.2,102.9,184.2,102.2z M183,96c0-1-0.7-1.6-1.5-1.6c-0.8,0-1.5,0.6-1.5,1.6
				c0,1,0.7,1.6,1.5,1.6C182.3,97.6,183,97,183,96z"/>
			<path class="st85" d="M190.1,98.3v-7h-2.6v-1.5h4.5v8.5c0,1,0.6,1.4,1.4,1.4c0.4,0,0.8-0.1,1.3-0.3l0.4,1.4
				c-0.8,0.3-1.3,0.4-2.2,0.4C191,101.4,190.1,100.3,190.1,98.3z"/>
			<path class="st85" d="M197.1,100.1c3.2-2.7,5.1-4.5,5.1-6.1c0-1.1-0.7-1.7-1.9-1.7c-0.9,0-1.6,0.5-2.2,1.1l-1-1
				c1-1,2-1.6,3.5-1.6c2.1,0,3.5,1.2,3.5,3.1c0,1.8-1.8,3.7-4.2,5.8c0.6-0.1,1.3-0.1,1.9-0.1h2.9v1.6h-7.4V100.1z"/>
			<path class="st85" d="M206.7,100.1c3.2-2.7,5.1-4.5,5.1-6.1c0-1.1-0.7-1.7-1.9-1.7c-0.9,0-1.6,0.5-2.2,1.1l-1-1
				c1-1,2-1.6,3.5-1.6c2.1,0,3.5,1.2,3.5,3.1c0,1.8-1.8,3.7-4.2,5.8c0.6-0.1,1.3-0.1,1.9-0.1h2.9v1.6h-7.4V100.1z"/>
			<path class="st85" d="M216.2,97.3c0-2.6,1.9-4.1,4.1-4.1c2.3,0,3.6,1.6,3.6,3.7c0,0.4,0,0.7-0.1,0.9h-6.3v-1.3h5.1l-0.4,0.4
				c0-1.6-0.7-2.3-2-2.3c-1.3,0-2.3,0.9-2.3,2.7c0,1.8,1.1,2.7,2.7,2.7c0.8,0,1.5-0.2,2.2-0.6l0.6,1.1c-0.8,0.5-1.9,0.9-3.1,0.9
				C218.1,101.4,216.2,99.9,216.2,97.3z"/>
			<path class="st85" d="M226.3,99.7h2.8V93h-2.3v-1.2c1.3-0.2,2-0.4,2.8-0.8h1.4v8.7h2.5v1.5h-7.2V99.7z"/>
			<path class="st85" d="M235.6,97.3c0-2.6,2.1-4.1,4.5-4.1c1.3,0,2.3,0.5,2.9,1.1l-0.9,1.2c-0.6-0.5-1.2-0.8-1.9-0.8
				c-1.6,0-2.7,1-2.7,2.6c0,1.6,1.1,2.6,2.6,2.6c0.9,0,1.6-0.4,2.2-0.9l0.8,1.2c-0.9,0.8-2.1,1.2-3.2,1.2
				C237.5,101.4,235.6,99.9,235.6,97.3z"/>
		</g>
	</g>
	<g>
		<g>
			<defs>
				<circle id="SVGID_10_" cx="105" cy="83" r="25"/>
			</defs>
			<clipPath id="SVGID_1_">
				<use xlink:href="#SVGID_10_"  style="overflow:visible;"/>
			</clipPath>
			<g style="clip-path:url(#SVGID_1_);">
				<path class="st98" d="M114.9,76.8c0.4,4.7,1.6,10.4,3.5,15c0,0-5.7,1.1-12.7,1.2h-1.4c-7-0.1-12.7-1.2-12.7-1.2
					c1.9-4.7,3.1-10.6,3.5-15.3L114.9,76.8z"/>
				<circle class="st99" cx="114.9" cy="80.7" r="3"/>
				<circle class="st99" cx="95.1" cy="80.7" r="3"/>
				<path class="st100" d="M125.7,103.4c0,0-1.2-6.6-5.4-7.2L105,94.4l-15.3,1.8c-4.4,0.6-5.4,7.2-5.4,7.2l5.2,11.1h25L125.7,103.4z
					"/>
				<path class="st101" d="M98.1,95.5c0-1.2,3.1-1.3,6.9-1.3s6.9,0.1,6.9,1.3s-3.1,2.2-6.9,2.2S98.1,96.7,98.1,95.5"/>
				<polyline class="st99" points="101.1,97.2 101.1,87.8 108.9,87.8 108.9,97.2 				"/>
				<path class="st99" d="M105.3,92.9h-0.6c-5.3,0-9.6-4.3-9.6-9.6V68.9h19.8v14.4C114.9,88.7,110.6,92.9,105.3,92.9z"/>
				<circle class="st7" cx="101.1" cy="80.7" r="1.2"/>
				<circle class="st7" cx="108.9" cy="80.7" r="1.2"/>
				<line class="st102" x1="99.9" y1="77.9" x2="102.3" y2="77.9"/>
				<line class="st102" x1="107.7" y1="77.9" x2="110.1" y2="77.9"/>
				<path class="st102" d="M109.1,87.2c0,1.2-1.8,2.1-4.1,2.1"/>
				<path class="st98" d="M108.6,65.7c3.9-0.6,6.3,1.6,6.3,3.7v7.4c-4.5-1.2-6.9-5.4-6.9-5.4c-3.6,4.5-12.9,5.4-12.9,5.4v-7.8
					c0-3,3.4-5.4,7.5-5.4s7.5,2.4,7.5,5.4"/>
			</g>
		</g>
		<g>
			<path class="st103" d="M105,58c13.8,0,25,11.2,25,25s-11.2,25-25,25S80,96.8,80,83S91.2,58,105,58 M105,56c-14.9,0-27,12.1-27,27
				s12.1,27,27,27s27-12.1,27-27S119.9,56,105,56L105,56z"/>
		</g>
	</g>
	<g>
		<g>
			<line class="st104" x1="149.3" y1="96.8" x2="151.7" y2="99"/>
			<line class="st104" x1="157.3" y1="93" x2="151.7" y2="99"/>
		</g>
		<circle class="st104" cx="153.3" cy="96" r="10"/>
	</g>
</g>
</svg>
