<?xml version="1.0" encoding="utf-8"?>
<!-- Generator: Adobe Illustrator 19.2.1, SVG Export Plug-In . SVG Version: 6.00 Build 0)  -->
<svg version="1.1" id="Layer_1" xmlns:sketch="http://www.bohemiancoding.com/sketch/ns"
	 xmlns="http://www.w3.org/2000/svg" xmlns:xlink="http://www.w3.org/1999/xlink" x="0px" y="0px" viewBox="0 0 76 76"
	 style="enable-background:new 0 0 76 76;" xml:space="preserve">
<style type="text/css">
	.st0{fill:none;stroke:#E5E5E4;stroke-width:2;stroke-linecap:round;stroke-linejoin:round;stroke-miterlimit:10;}
	.st1{fill:#8C929D;}
	.st2{fill:#FC6D26;}
	.st3{fill:#E24329;}
	.st4{fill:#FCA326;}
	.st5{fill:#444444;}
	.st6{fill:#554488;}
	.st7{fill:#4887C5;}
	.st8{fill:url(#SVGID_1_);}
	.st9{fill:url(#SVGID_2_);}
	.st10{fill:#FFFFFF;}
	.st11{opacity:0.1;}
	.st12{fill:#5C5C5C;}
	.st13{fill:#787878;}
	.st14{fill:#A1A1A1;}
	.st15{opacity:0.15;}
	.st16{fill:#373D47;}
	.st17{fill:none;stroke:#000000;stroke-miterlimit:10;}
	.st18{fill:none;stroke:#FC6D26;stroke-width:1.8;stroke-linecap:round;stroke-linejoin:round;stroke-miterlimit:10;}
	.st19{fill:none;stroke:#E24329;stroke-width:1.8;stroke-linecap:round;stroke-linejoin:round;stroke-miterlimit:10;}
	.st20{fill:none;stroke:#FCA326;stroke-width:1.8;stroke-linecap:round;stroke-linejoin:round;stroke-miterlimit:10;}
	.st21{fill:none;stroke:#E5E5E4;stroke-width:1.8;stroke-linecap:round;stroke-linejoin:round;stroke-miterlimit:10;}
	.st22{fill:#2B2B2B;}
	.st23{fill:#FFFFFF;stroke:#E5E5E4;stroke-width:2;stroke-linecap:round;stroke-linejoin:round;stroke-miterlimit:10;}
	.st24{fill:#E5E5E4;}
	.st25{fill:none;stroke:#E5E5E4;stroke-width:1.8353;stroke-linecap:round;stroke-linejoin:round;stroke-miterlimit:10;}
	.st26{fill:none;stroke:#E14329;stroke-width:2;stroke-linecap:round;stroke-linejoin:round;stroke-miterlimit:10;}
	.st27{fill:#FFFFFF;stroke:#E14329;stroke-width:2;stroke-linecap:round;stroke-linejoin:round;stroke-miterlimit:10;}
	.st28{fill:none;stroke:#E14329;stroke-width:1.9627;stroke-linecap:round;stroke-linejoin:round;stroke-miterlimit:10;}
	.st29{fill:#E14329;}
	.st30{fill:none;stroke:#E14329;stroke-width:2.1099;stroke-linecap:round;stroke-linejoin:round;stroke-miterlimit:10;}
	.st31{fill:none;stroke:#FCA326;stroke-width:2;stroke-linecap:round;stroke-linejoin:round;stroke-miterlimit:10;}
	.st32{fill:none;stroke:#E14329;stroke-width:4;stroke-linecap:round;stroke-linejoin:round;stroke-miterlimit:10;}
	.st33{fill:none;stroke:#E14329;stroke-width:1.8353;stroke-linecap:round;stroke-linejoin:round;stroke-miterlimit:10;}
	.st34{fill:none;stroke:#E14329;stroke-width:2.055;stroke-linecap:round;stroke-linejoin:round;stroke-miterlimit:10;}
	.st35{fill:#463675;}
	.st36{fill:none;stroke:#FFFFFF;stroke-width:2;stroke-miterlimit:10;}
	.st37{fill:none;stroke:#FFFFFF;stroke-width:2.0065;stroke-miterlimit:10;}
	.st38{fill:none;stroke:#E14329;stroke-width:2.1111;stroke-linecap:round;stroke-linejoin:round;stroke-miterlimit:10;}
	.st39{fill:none;stroke:#E14329;stroke-width:2.0295;stroke-linecap:round;stroke-linejoin:round;stroke-miterlimit:10;}
	.st40{fill:#FFB6CA;}
	.st41{fill:none;stroke:#E24329;stroke-width:2;stroke-linecap:round;stroke-linejoin:round;stroke-miterlimit:10;}
	.st42{fill:none;stroke:#E14329;stroke-width:2.0074;stroke-linecap:round;stroke-linejoin:round;stroke-miterlimit:10;}
	.st43{fill:none;stroke:#E14329;stroke-width:1.9282;stroke-linecap:round;stroke-linejoin:round;stroke-miterlimit:10;}
	.st44{fill:none;stroke:#E14329;stroke-width:2.0019;stroke-linecap:round;stroke-linejoin:round;stroke-miterlimit:10;}
	.st45{fill:none;stroke:#E14329;stroke-width:2.0013;stroke-linecap:round;stroke-linejoin:round;stroke-miterlimit:10;}
	.st46{fill:none;stroke:#E14329;stroke-width:2.0821;stroke-linecap:round;stroke-linejoin:round;stroke-miterlimit:10;}
	.st47{fill:none;stroke:#E14329;stroke-width:1.8741;stroke-linecap:round;stroke-linejoin:round;stroke-miterlimit:10;}
	.st48{fill:none;stroke:#E14329;stroke-width:1.9965;stroke-linecap:round;stroke-linejoin:round;stroke-miterlimit:10;}
	.st49{fill:none;stroke:#E14329;stroke-width:2.1108;stroke-linecap:round;stroke-linejoin:round;stroke-miterlimit:10;}
	.st50{fill:none;stroke:#E14329;stroke-width:2.1;stroke-linecap:round;stroke-linejoin:round;stroke-miterlimit:10;}
	.st51{fill:none;stroke:#E14329;stroke-width:2.1103;stroke-linecap:round;stroke-linejoin:round;stroke-miterlimit:10;}
	.st52{fill:none;stroke:#E14329;stroke-width:1.9134;stroke-linecap:round;stroke-linejoin:round;stroke-miterlimit:10;}
	.st53{fill:none;stroke:#E14329;stroke-width:1.8373;stroke-linecap:round;stroke-linejoin:round;stroke-miterlimit:10;}
	.st54{fill:none;stroke:#E24329;stroke-width:2.0215;stroke-linecap:round;stroke-linejoin:round;stroke-miterlimit:10;}
	.st55{fill:none;stroke:#E24329;stroke-width:2.1768;stroke-linecap:round;stroke-linejoin:round;stroke-miterlimit:10;}
	.st56{fill:#FFFFFF;stroke:#E14329;stroke-width:1.8373;stroke-linecap:round;stroke-linejoin:round;stroke-miterlimit:10;}
	.st57{fill:#FFFFFF;stroke:#E14329;stroke-width:1.725;stroke-linecap:round;stroke-linejoin:round;stroke-miterlimit:10;}
</style>
<path class="st29" d="M75.7,32.6c0-0.3-0.2-1-1.2-1.1l-2-0.3c-1.5-0.2-3-0.4-4.5-0.6c-0.9-0.1-1.5-0.6-1.8-1.4
	c-0.6-1.7-1.3-3.3-2.1-5c-0.4-0.8-0.3-1.5,0.3-2.3c0.9-1.2,1.8-2.3,2.6-3.4l1.1-1.4c0.7-0.9,0.7-1.4,0-2.3c-0.1-0.1-0.1-0.2-0.2-0.2
	c-1.5-1.9-3.2-3.6-5-5.2C62.5,9,62,8.5,61.5,8.1l-0.6-0.5c-0.8-0.6-1.5-0.2-1.6-0.1c-1.3,1-2.6,2-3.9,3l-1.2,0.9
	c-0.8,0.6-1.6,0.7-2.5,0.3c-1.6-0.8-3.2-1.4-4.7-2c-0.9-0.3-1.4-0.9-1.6-1.9c-0.1-0.8-0.2-1.5-0.3-2.3l-0.6-4.4
	c-0.1-0.5-0.4-0.8-0.9-0.9c-3.8-0.4-7.5-0.4-11.2,0c-0.4,0.1-0.8,0.4-0.9,0.8l-0.3,2c-0.2,1.6-0.4,3.2-0.6,4.7
	c-0.1,1-0.6,1.6-1.4,1.9c-1.7,0.6-3.4,1.3-5.1,2.1c-0.8,0.3-1.5,0.3-2.2-0.3c-0.9-0.7-1.9-1.4-2.8-2.1l-2.6-2
	c-0.4-0.3-1.1-0.2-1.4,0.2S14.9,8.6,15.4,9l2.6,2c0.9,0.7,1.9,1.4,2.8,2.2c1.3,1,2.8,1.1,4.2,0.5c1.6-0.8,3.3-1.4,4.9-2
	c1.5-0.5,2.5-1.8,2.7-3.5C32.8,6.6,33,5,33.2,3.4l0.2-1.2c3-0.3,6.1-0.3,9.2,0l0.5,3.6c0.1,0.8,0.2,1.5,0.3,2.3
	c0.2,1.7,1.2,3,2.9,3.5c1.5,0.5,3,1.1,4.5,1.9c1.6,0.8,3.1,0.6,4.6-0.5l1.2-0.9c1.1-0.9,2.3-1.8,3.4-2.6l0.2,0.2
	c0.5,0.4,1,0.9,1.5,1.3c1.7,1.5,3.3,3.2,4.8,5c0,0,0,0,0,0.1l-1,1.3c-0.9,1.1-1.8,2.3-2.6,3.5c-1,1.3-1.2,2.9-0.5,4.3
	c0.7,1.6,1.4,3.2,2,4.8c0.5,1.5,1.8,2.5,3.4,2.7c1.5,0.2,3,0.4,4.5,0.6l1.5,0.2c0.3,3.1,0.3,6.2,0,9.2l-5.8,0.8
	c-1.8,0.2-3.1,1.3-3.7,3c-0.5,1.4-1.1,2.8-1.8,4.3c-0.8,1.6-0.6,3.3,0.5,4.7l1.8,2.3c0.6,0.8,1.2,1.5,1.8,2.3c-1.7,2-3.6,4-5.7,5.9
	c-0.3,0.2-0.5,0.4-0.8,0.7l-2.5-1.9c-0.8-0.6-1.6-1.2-2.4-1.8c-1.3-1-2.8-1.1-4.3-0.4c-1.5,0.7-3.1,1.4-4.8,2
	c-1.5,0.6-2.5,1.8-2.7,3.5c-0.2,1.5-0.4,3-0.6,4.6l-0.2,1.4c-3,0.3-6.1,0.3-9.2,0l-0.3-2.2c-0.2-1.2-0.3-2.5-0.5-3.7
	c-0.2-1.8-1.3-3-2.9-3.6c-1.7-0.6-3-1.1-4.2-1.7c-1.7-0.9-3.4-0.7-5,0.6c-1,0.8-2,1.6-3.1,2.4c-0.5,0.4-0.9,0.7-1.4,1.1
	c-1.5-1.2-2.7-2.3-3.7-3.4c-0.7-0.8-1.4-1.6-2.1-2.3c-0.2-0.3-0.5-0.5-0.7-0.8c1.2-1.6,2.5-3.2,3.7-4.8c1-1.3,1.2-2.9,0.4-4.4
	c-0.7-1.5-1.4-3.1-1.9-4.7c-0.6-1.6-1.8-2.6-3.5-2.8c-1.5-0.2-3-0.4-4.4-0.6l-1.4-0.2c-0.3-3-0.3-6.1,0-9.2L5,33
	c1-0.1,2.1-0.3,3.1-0.4c1.7-0.2,3-1.2,3.5-2.9c0.5-1.6,1.2-3.1,1.8-4.5c0.8-1.6,0.6-3.2-0.6-4.7c-1-1.2-1.9-2.5-2.9-3.7L9.4,16
	c0.5-0.7,1.4-1.6,2.4-2.7L29.6,31c-3.6,4.3-3.4,10.8,0.7,14.8c2.1,2.1,5,3.2,7.8,3.2s5.6-1.1,7.8-3.2c4.3-4.3,4.3-11.3,0-15.6
	C41.7,26.2,35.3,26,31,29.6L12.7,11.3c0,0-0.1,0-0.1,0c0,0,0-0.1-0.1-0.1c-0.4-0.4-1-0.4-1.4,0c-0.7,0.7-3.1,3.1-3.8,4.3
	c-0.2,0.3-0.2,0.6,0,0.9c0,0.1,0.1,0.2,0.1,0.2l1.1,1.4c1,1.2,1.9,2.5,2.9,3.7c0.7,0.9,0.8,1.7,0.3,2.6c-0.7,1.5-1.4,3-1.9,4.7
	c-0.3,0.9-0.9,1.4-1.9,1.6c-1,0.1-2.1,0.3-3.1,0.4l-3.6,0.5c-0.5,0.1-0.8,0.4-0.9,0.9c-0.4,3.8-0.4,7.6,0,11.2
	c0.1,0.4,0.5,0.8,0.9,0.9l2.2,0.3c1.5,0.2,3,0.4,4.4,0.6c1,0.1,1.6,0.6,1.9,1.5c0.6,1.7,1.3,3.3,2,4.9c0.4,0.8,0.3,1.6-0.2,2.3
	c-1.3,1.7-2.6,3.3-3.8,5l-0.1,0.2c-0.4,0.6-0.4,1.2,0.1,1.8c0.3,0.4,0.7,0.8,1,1.2c0.7,0.8,1.4,1.6,2.1,2.4c1.2,1.3,2.6,2.5,4.3,3.9
	c0.8,0.6,1.4,0.2,1.7,0.1c0.6-0.5,1.2-0.9,1.8-1.4c1-0.8,2.1-1.6,3.1-2.4c1-0.8,1.8-0.9,2.9-0.3c1.3,0.7,2.7,1.3,4.5,1.9
	c1,0.3,1.5,1,1.6,2c0.2,1.2,0.3,2.5,0.5,3.7l0.4,2.9c0.1,0.5,0.4,0.8,0.9,0.9c1.9,0.2,3.8,0.3,5.6,0.3c1.9,0,3.8-0.1,5.6-0.3
	c0.4-0.1,0.8-0.4,0.9-0.8l0.3-2.2c0.2-1.5,0.4-3,0.6-4.5c0.1-1,0.6-1.6,1.4-1.9c1.7-0.6,3.4-1.3,4.9-2c0.8-0.4,1.5-0.3,2.2,0.2
	c0.8,0.6,1.6,1.2,2.4,1.8l3.1,2.4c0.3,0.2,0.7,0.2,1.1,0.1c0.1,0,0.2-0.1,0.3-0.2l0.4-0.3c0.3-0.3,0.7-0.5,1-0.8
	c2.4-2.1,4.5-4.3,6.3-6.6c0.6-0.7,0.2-1.4,0-1.6c-0.7-0.9-1.4-1.8-2.1-2.7l-1.8-2.3c-0.7-0.9-0.8-1.7-0.3-2.6
	c0.8-1.5,1.4-3.1,1.9-4.6c0.3-1,1-1.5,2-1.6l6.6-0.9c0.4,0,0.7-0.3,0.8-0.7c0-0.1,0-0.2,0.1-0.2C76.1,39.9,76.1,36.2,75.7,32.6z
	 M31.6,31.6c1.8-1.8,4.1-2.6,6.4-2.6s4.6,0.9,6.4,2.6c3.5,3.5,3.5,9.2,0,12.7c-3.5,3.5-9.2,3.5-12.7,0
	C28.1,40.9,28.1,35.2,31.6,31.6z M15.8,67.7l0.5-0.8c0,0,0.1,0,0.1,0.1L15.8,67.7z"/>
</svg>
